…
- Load the data (i.e. read.csv())

Unziping and loading the dataset as a tibble.

```r
unzip("activity.zip")

data <- read_csv("activity.csv")
data
```

```
## # A tibble: 17,568 × 3
##    steps date       interval
##    <dbl> <date>        <dbl>
##  1    NA 2012-10-01        0
##  2    NA 2012-10-01        5
##  3    NA 2012-10-01       10
##  4    NA 2012-10-01       15
##  5    NA 2012-10-01       20
##  6    NA 2012-10-01       25
##  7    NA 2012-10-01       30
##  8    NA 2012-10-01       35
##  9    NA 2012-10-01       40
## 10    NA 2012-10-01       45
## # … with 17,558 more rows
```

- Process/transform the data (if necessary) into a format suitable for your analysis

Joined the **date** and **interval** columns into a **datetime** column.


```r
datetime = strptime(paste(data$date, sprintf("%04d", data$interval)), "%Y-%m-%d %H%M")

clean_data = tibble(datetime=datetime, steps=data$steps)
clean_data
```

```
## # A tibble: 17,568 × 2
##    datetime            steps
##    <dttm>              <dbl>
##  1 2012-10-01 00:00:00    NA
##  2 2012-10-01 00:05:00    NA
##  3 2012-10-01 00:10:00    NA
##  4 2012-10-01 00:15:00    NA
##  5 2012-10-01 00:20:00    NA
##  6 2012-10-01 00:25:00    NA
##  7 2012-10-01 00:30:00    NA
##  8 2012-10-01 00:35:00    NA
##  9 2012-10-01 00:40:00    NA
## 10 2012-10-01 00:45:00    NA
## # … with 17,558 more rows
```


## What is mean total number of steps taken per day?

- Calculate the total number of steps taken per day

```r
data_per_day <- data %>% group_by(date) %>% summarise(total=sum(steps))
data_per_day
```

```
## # A tibble: 61 × 2
##    date       total
##    <date>     <dbl>
##  1 2012-10-01    NA
##  2 2012-10-02   126
##  3 2012-10-03 11352
##  4 2012-10-04 12116
##  5 2012-10-05 13294
##  6 2012-10-06 15420
##  7 2012-10-07 11015
##  8 2012-10-08    NA
##  9 2012-10-09 12811
## 10 2012-10-10  9900
## # … with 51 more rows
```
…
```
## # A tibble: 17,568 × 4
##     steps date       interval daytype
##     <dbl> <date>        <dbl> <chr>  
##  1 1.72   2012-10-01        0 weekday
##  2 0.340  2012-10-01        5 weekday
##  3 0.132  2012-10-01       10 weekday
##  4 0.151  2012-10-01       15 weekday
##  5 0.0755 2012-10-01       20 weekday
##  6 2.09   2012-10-01       25 weekday
##  7 0.528  2012-10-01       30 weekday
##  8 0.868  2012-10-01       35 weekday
##  9 0      2012-10-01       40 weekday
## 10 1.47   2012-10-01       45 weekday
## # … with 17,558 more rows
```
…
